<?xml version="1.0" ?><svg style="fill:#5a1625" version="1.1" viewBox="0 0 96 96" xml:space="preserve" xmlns="http://www.w3.org/2000/svg" xmlns:xlink="http://www.w3.org/1999/xlink"><style type="text/css">
	.st0{display:none;}
	.st1{fill:#C48E3B;}
	.st2{fill:#BCBEC0;}
	.st3{fill:#FFFFFF;}
	.st4{fill:none;stroke:#000000;stroke-width:3;stroke-linecap:round;stroke-linejoin:round;stroke-miterlimit:10;}
	.st5{fill:#221E1F;stroke:#000000;stroke-width:0;stroke-miterlimit:10;}
	.st6{fill:none;stroke:#000000;stroke-width:1.5;stroke-linecap:round;stroke-linejoin:round;stroke-miterlimit:10;}
</style><g class="st0" id="Layer_2"/><g id="Layer_1"/><g id="Layer_3"><path d="M88,50.1c0,0,0-0.1,0-0.1c0,0,0,0,0-0.1c0,0,0-0.1,0-0.1c0,0,0-0.1,0-0.1c0,0,0,0,0,0c0,0,0,0,0,0c0,0,0-0.1,0-0.1   c0,0,0-0.1-0.1-0.1c0,0,0,0,0-0.1c0,0,0,0,0-0.1c0,0-0.1-0.1-0.1-0.1c0,0,0,0,0-0.1c0,0,0,0-0.1,0c0,0-0.1-0.1-0.1-0.1c0,0,0,0,0,0   c0,0,0,0-0.1,0c0,0-0.1,0-0.1-0.1c0,0,0,0,0,0c0,0,0,0,0,0c0,0-0.1,0-0.1,0c0,0,0,0-0.1,0l-15.6-4.7V33.8c0,0,0,0,0,0l0,0   c0,0,0,0,0,0c0,0,0,0,0,0c0,0,0-0.1,0-0.1c0-0.1,0-0.2,0-0.3c0,0,0-0.1,0-0.1c0,0,0-0.1,0-0.1c0-0.1-0.1-0.2-0.1-0.2   c0,0,0-0.1-0.1-0.1c0,0,0,0,0,0l-9.7-11.7C56,14.3,44.1,7.3,36.8,5.4c-5.7-1.5-8.1-0.2-9,1.1c-0.9,1.2-1.3,3.6,1.5,7.7l5.2,7.5   c1.1,1.6,2.6,2.9,4.3,3.9L38,26.5c-4.4,0.3-8.4,1-11.4,2c-5.6,1.9-6.9,4.3-6.9,6c0,0,0,0,0,0c0,0,0,0,0,0V55c0,0,0,0,0,0   c0,0,0,0,0,0v25.1c0,0.8,0.6,1.4,1.4,1.4s1.4-0.6,1.4-1.4v-23l22.1,9.2v24.5c0,0.8,0.6,1.4,1.4,1.4c0.8,0,1.4-0.6,1.4-1.4V67.5   l6.6,2.7c0,0,0.1,0,0.1,0c0,0,0.1,0,0.1,0c0.1,0,0.2,0.1,0.4,0.1c0,0,0,0,0,0c0,0,0,0,0,0c0.1,0,0.2,0,0.4-0.1c0,0,0.1,0,0.1,0   c0,0,0.1,0,0.1,0l18-7.3v14.7c0,0.8,0.6,1.4,1.4,1.4c0.8,0,1.4-0.6,1.4-1.4V61.8l11.1-4.5c0.5-0.2,0.9-0.7,0.9-1.3L88,50.1   C88,50.2,88,50.2,88,50.1z M70,46.7l12.2,3.7L54.6,61.2L42,56.1l1.6-0.5l7.7,2.8c0.2,0.1,0.3,0.1,0.5,0.1c0.6,0,1.1-0.4,1.3-0.9   c0.3-0.7-0.1-1.6-0.9-1.8L48,54.1l0.9-0.3l7.7,2.8c0.2,0.1,0.3,0.1,0.5,0.1c0.6,0,1.1-0.4,1.3-0.9c0.3-0.7-0.1-1.6-0.9-1.8   l-4.3-1.6l2.6-0.9l7.9,2.9c0.2,0.1,0.3,0.1,0.5,0.1c0.6,0,1.1-0.4,1.3-0.9c0.3-0.7-0.1-1.6-0.9-1.8L60.2,50l0.5-0.2l7.8,2.9   c0.2,0.1,0.3,0.1,0.5,0.1c0.6,0,1.1-0.4,1.3-0.9c0.3-0.7-0.1-1.6-0.9-1.8L65,48.4l0.3-0.1l7.9,2.8c0.2,0.1,0.3,0.1,0.5,0.1   c0.6,0,1.1-0.4,1.4-1c0.3-0.7-0.1-1.6-0.9-1.8l-4.5-1.6L70,46.7z M68.5,44.2L39.3,54v-9.4l29.2-8.9V44.2z M36.8,20.1l-5.2-7.5   c-1.7-2.4-1.9-3.9-1.5-4.4c0.2-0.3,0.9-0.6,2.1-0.6c0.9,0,2.2,0.2,3.8,0.6C42.9,10,54.3,16.7,59.1,23l6.7,8.1l-7.9-2.4l-14.3-4.3   l3.9-4.6c0.5-0.6,0.4-1.5-0.2-2c-0.6-0.5-1.5-0.4-2,0.2l-4.6,5.5C39.1,22.6,37.8,21.5,36.8,20.1z M39.4,29.3   c1.1-0.1,2.3-0.1,3.5-0.1c4.4,0,8.8,0.5,12.1,1.6l10.1,3l-27.1,8.2l-7-2.8L39.4,29.3z M27.5,31.3c2.1-0.7,4.8-1.3,7.8-1.6l-7.2,8.5   l-1.9-0.8c-2.8-1.1-3.7-2.2-3.7-2.8C22.5,34,23.6,32.6,27.5,31.3z M54.7,67.3L22.5,54V38.8c0.7,0.5,1.6,0.9,2.6,1.3l2.3,0.9   c0,0,0,0.1,0.1,0.1c0.3,0.2,0.6,0.3,0.9,0.3c0,0,0.1,0,0.1,0l7.9,3.1V56c0,0,0,0,0,0c0,0,0,0.1,0,0.1c0,0,0,0.1,0,0.1   c0,0,0,0,0,0.1c0,0,0,0.1,0,0.1c0,0,0,0.1,0,0.1c0,0,0,0,0,0c0,0,0,0,0,0.1c0,0,0,0.1,0,0.1c0,0.1,0.1,0.1,0.1,0.2c0,0,0,0,0,0   c0,0,0,0,0,0.1c0,0,0,0,0,0.1c0,0,0,0,0,0.1c0,0,0.1,0.1,0.1,0.1c0,0,0,0,0,0c0,0,0,0,0,0c0,0,0,0,0,0c0,0,0.1,0,0.1,0   c0.1,0,0.1,0.1,0.2,0.1c0,0,0,0,0,0l16.8,6.7c0,0,0,0,0.1,0c0.2,0.1,0.3,0.1,0.5,0.1c0.2,0,0.3,0,0.5-0.1c0,0,0,0,0,0l30-11.8   l0,2.7L54.7,67.3z"/></g></svg>